correlation.knit
…
We may also use correlate() function of
dlookr package to calculate the correlation coefficient
of all combinations of numerical variables of a data set.

df %>% dplyr::select(WAs, WFe, WFe, SAs, SPAs, SAoAs, SAoFe,  Grain_As) %>%
  dlookr::correlate()

## # A tibble: 42 × 3
##    var1     var2  coef_corr
##    <fct>    <fct>     <dbl>
##  1 WFe      WAs      0.243 
##  2 SAs      WAs      0.235 
##  3 SPAs     WAs      0.281 
##  4 SAoAs    WAs      0.275 
##  5 SAoFe    WAs     -0.0999
##  6 Grain_As WAs      0.326 
##  7 WAs      WFe      0.243 
##  8 SAs      WFe      0.321 
##  9 SPAs     WFe      0.300 
## 10 SAoAs    WFe      0.314 
## # … with 32 more rows
…
